[gd_scene load_steps=7 format=3 uid="uid://divx0o57u817d"]

[ext_resource type="Script" path="res://Scripts/Player.cs" id="1_gfvrt"]
[ext_resource type="Script" path="res://Scripts/HUD.cs" id="2_y0di3"]
[ext_resource type="Script" path="res://Scripts/Informer.cs" id="3_kkpqs"]

[sub_resource type="RectangleShape2D" id="RectangleShape2D_6j0nj"]
size = Vector2(22, 26)

[sub_resource type="CSharpScript" id="CSharpScript_okqvy"]

[sub_resource type="StyleBoxFlat" id="StyleBoxFlat_6mcf6"]
bg_color = Color(0.705882, 0.454902, 0.972549, 1)
script = SubResource("CSharpScript_okqvy")

[node name="Player" type="CharacterBody2D"]
collision_mask = 14
script = ExtResource("1_gfvrt")
HitPoints = 10

[node name="CollisionShape2D" type="CollisionShape2D" parent="."]
position = Vector2(0, 3)
shape = SubResource("RectangleShape2D_6j0nj")

[node name="RemoteTransform2D" type="RemoteTransform2D" parent="."]
remote_path = NodePath("../Camera2D")

[node name="Camera2D" type="Camera2D" parent="."]
zoom = Vector2(2, 2)

[node name="Informer" type="Node" parent="."]
script = ExtResource("3_kkpqs")

[node name="Hud" type="CanvasLayer" parent="."]
script = ExtResource("2_y0di3")

[node name="Panel" type="Panel" parent="Hud"]
offset_left = 16.0
offset_top = 16.0
offset_right = 120.0
offset_bottom = 72.0
theme_override_styles/panel = SubResource("StyleBoxFlat_6mcf6")

[node name="Label" type="Label" parent="Hud"]
offset_left = 16.0
offset_top = 16.0
offset_right = 120.0
offset_bottom = 72.0
