[gd_scene load_steps=5 format=3 uid="uid://dcsg2ftmld0w7"]

[ext_resource type="Script" path="res://Scripts/Saw.cs" id="1_h7wpi"]
[ext_resource type="PackedScene" uid="uid://cv0eods5qd4ed" path="res://Items/Objects/damageable_zone.tscn" id="2_2ed5n"]
[ext_resource type="PackedScene" uid="uid://pfhhuxya5r8l" path="res://Items/AnimatedSprites/saw.tscn" id="3_hb662"]

[sub_resource type="CircleShape2D" id="CircleShape2D_8api2"]
radius = 20.0

[node name="Saw" type="Node2D"]
script = ExtResource("1_h7wpi")

[node name="DamageableZone" parent="." instance=ExtResource("2_2ed5n")]
collision_layer = 16

[node name="CollisionShape2D" type="CollisionShape2D" parent="DamageableZone"]
shape = SubResource("CircleShape2D_8api2")

[node name="Saw" parent="." instance=ExtResource("3_hb662")]
